Data
…
# Determine the cases where individuals have less than 8 observations
less_than_eight_days <- ds_cgm_full %>%
  select(pt_id, visitnum, device_visit_period_day) %>%
  distinct() %>%
  count(pt_id, visitnum) %>%
  filter(n < 8)

The data table below includes all cases (includes individuals with missing observations). It shows that there are 65 cases with less than 8 observation days within a period. This includes some individuals repeated more than once. If you only consider the unique patients, there are 44 patients with visit periods with less than 8 observation days.

# Print the tibble
less_than_eight_days

## # A tibble: 65 x 3
##    pt_id visitnum     n
##    <fct> <fct>    <int>
##  1 22    3            7
##  2 26    4            7
##  3 29    5            7
##  4 37    3            4
##  5 37    4            7
##  6 45    2            7
##  7 45    4            6
##  8 55    3            7
##  9 55    4            6
## 10 57    4            6
## #  with 55 more rows
…
# Shows that the greatest number of days is 8
ds_cgm_full_averaged %>%
  count(pt_id, visitnum, device_tm_bin) %>%
  rename(nobservations = n) %>%
  arrange(desc(nobservations))

## # A tibble: 380,072 x 4
##    pt_id visitnum device_tm_bin nobservations
##    <fct> <fct>            <dbl>         <int>
##  1 2     0                    1             8
##  2 2     0                    2             8
##  3 2     0                    3             8
##  4 2     0                    4             8
##  5 2     0                    5             8
##  6 2     0                    6             8
##  7 2     0                    7             8
##  8 2     0                    8             8
##  9 2     0                    9             8
## 10 2     0                   10             8
## #  with 380,062 more rows
…
